id;matricule;user_id
1;communities Berkshire;1
2;AI bypassing Grocery;1
3;Credit Card Account Extension Clothing;1
4;Ukraine gold;1
5;Generic Concrete Sausages interactive;1
6;Uganda payment Lead;1
7;GB;1
8;Pants software;1
9;cross-platform;2
10;Ohio Soft;2
