id;matricule;user_id
1;architectures Human;2
2;web-readiness;2
3;Applications;1
4;synergy Accounts;2
5;architectures;1
6;schemas Planner neutral;1
7;Assurance PNG;2
8;Principal;1
9;Sleek Granite Soap Mountains static;1
10;deposit;1
